<?xml version='1.0' encoding='UTF-8'?>
<!-- Generated by CodeCogs with dvisvgm 2.11.1 -->
<svg version='1.1' xmlns='http://www.w3.org/2000/svg' xmlns:xlink='http://www.w3.org/1999/xlink' width='30.108188pt' height='24.851098pt' viewBox='-.239051 -.228215 30.108188 24.851098'>
<defs>
<path id='g1-48' d='M8.678259-6.632669C8.678259-7.893083 8.657596-10.041985 7.78977-11.694987C7.025257-13.141363 5.806168-13.657926 4.731717-13.657926C3.739916-13.657926 2.479503-13.203351 1.694327-11.715649C.867826-10.16596 .785176-8.244346 .785176-6.632669C.785176-5.454906 .805838-3.657266 1.446376-2.086915C2.334865 .041325 3.925879 .3306 4.731717 .3306C5.682193 .3306 7.12857-.061988 7.975733-2.024927C8.595609-3.450641 8.678259-5.124305 8.678259-6.632669ZM4.731717 0C3.409316 0 2.62414-1.136439 2.334865-2.70679C2.107577-3.925879 2.107577-5.702856 2.107577-6.859957C2.107577-8.450971 2.107577-9.773372 2.37619-11.033786C2.768778-12.790101 3.925879-13.327326 4.731717-13.327326C5.578881-13.327326 6.673994-12.769438 7.066582-11.075111C7.335195-9.897348 7.355857-8.512959 7.355857-6.859957C7.355857-5.516893 7.355857-3.863891 7.107907-2.644803C6.673994-.392588 5.454906 0 4.731717 0Z'/>
<path id='g0-69' d='M17.227002-5.750596C17.251789-5.824958 17.32615-5.998467 17.32615-6.097615C17.32615-6.22155 17.227002-6.345486 17.07828-6.345486C16.979132-6.345486 16.929557-6.320699 16.855196-6.246337C16.805622-6.22155 16.805622-6.171976 16.582539-5.676235C15.120103-2.206048 14.054259-.718825 10.088331-.718825H6.469421C6.122402-.718825 6.072828-.718825 5.924106-.743612C5.651448-.768399 5.626661-.817973 5.626661-1.016269C5.626661-1.189779 5.676235-1.338501 5.725809-1.561584L7.436116-8.402811H9.890034C11.823424-8.402811 11.972147-7.981431 11.972147-7.23782C11.972147-6.989949 11.972147-6.766866 11.798637-6.023254C11.749063-5.924106 11.724276-5.824958 11.724276-5.750596C11.724276-5.577087 11.848212-5.502726 11.996934-5.502726C12.220017-5.502726 12.244804-5.676235 12.343953-6.023254L13.756815-11.77385C13.756815-11.897786 13.657666-12.021721 13.508944-12.021721C13.285861-12.021721 13.261074-11.922573 13.161925-11.575554C12.666184-9.666951 12.170443-9.121636 9.964395-9.121636H7.609625L9.146423-15.219251C9.369506-16.086798 9.41908-16.161159 10.435349-16.161159H13.979898C17.028706-16.161159 17.648382-15.343186 17.648382-13.45937C17.648382-13.434583 17.648382-12.740545 17.549234-11.922573C17.524447-11.823424 17.49966-11.674702 17.49966-11.625128C17.49966-11.426832 17.623595-11.35247 17.772317-11.35247C17.945827-11.35247 18.044975-11.451619 18.094549-11.897786L18.615077-16.23552C18.615077-16.309881 18.664651-16.557752 18.664651-16.607326C18.664651-16.879983 18.441568-16.879983 17.995401-16.879983H5.899319C5.428365-16.879983 5.180494-16.879983 5.180494-16.433816C5.180494-16.161159 5.354004-16.161159 5.775383-16.161159C7.312181-16.161159 7.312181-15.987649 7.312181-15.714992C7.312181-15.591057 7.287394-15.491908 7.213033-15.219251L3.86678-1.834242C3.643697-.966695 3.594123-.718825 1.859029-.718825C1.388075-.718825 1.140204-.718825 1.140204-.272658C1.140204 0 1.288927 0 1.784668 0H14.227769C14.773084 0 14.797871-.024787 14.97138-.42138L17.227002-5.750596Z'/>
</defs>
<g id='page1' transform='matrix(1.13 0 0 1.13 -63.986043 -61.08559)'>
<g fill='#f00'>
<use x='56.413267' y='70.736067' xlink:href='#g0-69'/>
<use x='74.379423' y='75.517605' xlink:href='#g1-48'/>
</g>
</g>
</svg>