<?xml version='1.0' encoding='UTF-8'?>
<!-- Generated by CodeCogs with dvisvgm 2.11.1 -->
<svg version='1.1' xmlns='http://www.w3.org/2000/svg' xmlns:xlink='http://www.w3.org/1999/xlink' width='132.091207pt' height='19.743153pt' viewBox='-.239051 -.228174 132.091207 19.743153'>
<defs>
<path id='g0-0' d='M13.616601-4.75238C13.967864-4.75238 14.33979-4.75238 14.33979-5.16563S13.967864-5.578881 13.616601-5.578881H2.438177C2.086915-5.578881 1.714989-5.578881 1.714989-5.16563S2.086915-4.75238 2.438177-4.75238H13.616601Z'/>
<path id='g3-48' d='M6.427096-4.590783C6.427096-5.781517 6.355365-6.943559 5.838902-8.03387C5.250708-9.224604 4.217782-9.54022 3.514818-9.54022C2.682739-9.54022 1.664159-9.12418 1.133349-7.933446C.731656-7.029636 .588194-6.140172 .588194-4.590783C.588194-3.199202 .688617-2.151929 1.20508-1.133349C1.764582-.043039 2.75447 .30127 3.500472 .30127C4.748591 .30127 5.465901-.444732 5.88194-1.276811C6.398403-2.352776 6.427096-3.758703 6.427096-4.590783ZM3.500472 .014346C3.041393 .014346 2.108891-.243885 1.836313-1.807621C1.678505-2.668392 1.678505-3.758703 1.678505-4.762937C1.678505-5.939325 1.678505-7.000943 1.908044-7.847369C2.151929-8.808564 2.883585-9.253296 3.500472-9.253296C4.045627-9.253296 4.877707-8.923334 5.150284-7.689561C5.336785-6.871828 5.336785-5.738478 5.336785-4.762937C5.336785-3.801742 5.336785-2.711431 5.178977-1.836313C4.906399-.258232 4.002589 .014346 3.500472 .014346Z'/>
<path id='g4-58' d='M3.429978-8.037721C3.429978-8.554284 3.016728-8.884884 2.582815-8.884884C2.169565-8.884884 1.735652-8.554284 1.735652-8.037721S2.148902-7.190557 2.582815-7.190557C2.996066-7.190557 3.429978-7.521158 3.429978-8.037721ZM3.429978-.847163C3.429978-1.363726 3.016728-1.694327 2.582815-1.694327C2.169565-1.694327 1.735652-1.363726 1.735652-.847163S2.148902 0 2.582815 0C2.996066 0 3.429978-.3306 3.429978-.847163Z'/>
<path id='g4-61' d='M13.286001-6.632669C13.595939-6.632669 13.905877-6.632669 13.905877-6.983932C13.905877-7.355857 13.554614-7.355857 13.203351-7.355857H1.653002C1.301739-7.355857 .950476-7.355857 .950476-6.983932C.950476-6.632669 1.260414-6.632669 1.570352-6.632669H13.286001ZM13.203351-2.954741C13.554614-2.954741 13.905877-2.954741 13.905877-3.326666C13.905877-3.677929 13.595939-3.677929 13.286001-3.677929H1.570352C1.260414-3.677929 .950476-3.677929 .950476-3.326666C.950476-2.954741 1.301739-2.954741 1.653002-2.954741H13.203351Z'/>
<path id='g1-69' d='M9.970606-3.328317C9.984952-3.371356 10.027991-3.471779 10.027991-3.529164C10.027991-3.600895 9.970606-3.672626 9.884529-3.672626C9.827144-3.672626 9.798452-3.65828 9.755413-3.615241C9.726721-3.600895 9.726721-3.572203 9.597605-3.285279C8.751179-1.276811 8.134293-.41604 5.838902-.41604H3.744357C3.54351-.41604 3.514818-.41604 3.428741-.430386C3.270933-.444732 3.256586-.473424 3.256586-.588194C3.256586-.688617 3.285279-.774695 3.313971-.90381L4.303859-4.86336H5.724132C6.843135-4.86336 6.929213-4.619475 6.929213-4.189089C6.929213-4.045627 6.929213-3.916511 6.828789-3.486126C6.800097-3.428741 6.785751-3.371356 6.785751-3.328317C6.785751-3.227894 6.857482-3.184855 6.943559-3.184855C7.072674-3.184855 7.087021-3.285279 7.144405-3.486126L7.962139-6.814443C7.962139-6.886174 7.904754-6.957905 7.818677-6.957905C7.689561-6.957905 7.675215-6.90052 7.61783-6.699673C7.330906-5.595016 7.043982-5.2794 5.767171-5.2794H4.404282L5.293746-8.808564C5.422862-9.310681 5.451554-9.35372 6.039748-9.35372H8.091254C9.855836-9.35372 10.214491-8.880295 10.214491-7.789984C10.214491-7.775638 10.214491-7.373945 10.157107-6.90052C10.14276-6.843135 10.128414-6.757058 10.128414-6.728366C10.128414-6.613596 10.200145-6.570558 10.286222-6.570558C10.386646-6.570558 10.44403-6.627942 10.472723-6.886174L10.773993-9.396758C10.773993-9.439797 10.802685-9.583259 10.802685-9.611951C10.802685-9.769759 10.67357-9.769759 10.415338-9.769759H3.414395C3.141817-9.769759 2.998355-9.769759 2.998355-9.511528C2.998355-9.35372 3.098778-9.35372 3.342664-9.35372C4.232128-9.35372 4.232128-9.253296 4.232128-9.095488C4.232128-9.023757 4.217782-8.966372 4.174743-8.808564L2.238007-1.061618C2.108891-.559502 2.080198-.41604 1.075965-.41604C.803387-.41604 .659925-.41604 .659925-.157808C.659925 0 .746002 0 1.032926 0H8.234716C8.550333 0 8.564679-.014346 8.665102-.243885L9.970606-3.328317Z'/>
<path id='g1-99' d='M5.609363-5.39417C5.336785-5.39417 5.207669-5.39417 5.006822-5.222015C4.920745-5.150284 4.762937-4.935091 4.762937-4.705552C4.762937-4.418628 4.97813-4.246474 5.250708-4.246474C5.595016-4.246474 5.982364-4.533398 5.982364-5.107246C5.982364-5.795863 5.322439-6.326672 4.332551-6.326672C2.453199-6.326672 .573848-4.275166 .573848-2.238007C.573848-.989888 1.348542 .143462 2.811854 .143462C4.762937 .143462 5.99671-1.377235 5.99671-1.563735C5.99671-1.649813 5.910633-1.721543 5.853248-1.721543C5.810209-1.721543 5.795863-1.707197 5.666747-1.578082C4.748591-.358655 3.385702-.143462 2.840547-.143462C1.850659-.143462 1.535043-1.004234 1.535043-1.721543C1.535043-2.22366 1.778928-3.615241 2.295391-4.590783C2.668392-5.265054 3.443087-6.039748 4.346897-6.039748C4.533398-6.039748 5.322439-6.011056 5.609363-5.39417Z'/>
<path id='g1-115' d='M3.270933-2.869239C3.514818-2.826201 3.902165-2.740123 3.988242-2.725777C4.174743-2.668392 4.820322-2.438853 4.820322-1.750236C4.820322-1.305504 4.418628-.143462 2.75447-.143462C2.453199-.143462 1.377235-.186501 1.090311-.975541C1.664159-.90381 1.951083-1.348542 1.951083-1.664159C1.951083-1.965429 1.750236-2.123237 1.463312-2.123237C1.147696-2.123237 .731656-1.879352 .731656-1.233773C.731656-.387347 1.592428 .143462 2.740123 .143462C4.920745 .143462 5.566324-1.463312 5.566324-2.209314C5.566324-2.424507 5.566324-2.826201 5.107246-3.285279C4.748591-3.629588 4.404282-3.701318 3.629588-3.859127C3.24224-3.945204 2.625354-4.07432 2.625354-4.719898C2.625354-5.006822 2.883585-6.039748 4.246474-6.039748C4.849014-6.039748 5.437208-5.810209 5.58067-5.293746C4.949438-5.293746 4.920745-4.748591 4.920745-4.734245C4.920745-4.432974 5.193323-4.346897 5.322439-4.346897C5.523285-4.346897 5.924979-4.504705 5.924979-5.107246S5.379823-6.326672 4.26082-6.326672C2.381468-6.326672 1.879352-4.849014 1.879352-4.26082C1.879352-3.170509 2.94097-2.94097 3.270933-2.869239Z'/>
<use id='g2-69' xlink:href='#g1-69' transform='scale(1.440279)'/>
</defs>
<g id='page1' transform='matrix(1.13 0 0 1.13 -63.986043 -61.07468)'>
<g fill='#008000'>
<use x='56.413267' y='67.917642' xlink:href='#g2-69'/>
<use x='71.389878' y='71.017011' xlink:href='#g1-99'/>
</g>
<use x='77.933579' y='67.917642' xlink:href='#g4-58'/>
<use x='83.09184' y='67.917642' xlink:href='#g4-61'/>
<g fill='#f00'>
<use x='97.965469' y='67.917642' xlink:href='#g2-69'/>
<use x='112.942081' y='71.017011' xlink:href='#g3-48'/>
</g>
<use x='125.055441' y='67.917642' xlink:href='#g0-0'/>
<g fill='#f0f'>
<use x='145.718015' y='67.917642' xlink:href='#g2-69'/>
<use x='160.694627' y='71.017011' xlink:href='#g1-115'/>
<use x='167.311431' y='71.017011' xlink:href='#g1-99'/>
</g>
</g>
</svg>